0.0000E+00 5.0000E-01   0.0000E+00
3.3379E-03 5.0000E-01   3.9682E-02
7.6685E-03 5.0000E-01   8.7012E-02
1.2474E-02 5.0000E-01   1.3366E-01
1.7618E-02 5.0000E-01   1.7646E-01
2.3027E-02 5.0000E-01   2.1364E-01
2.8659E-02 5.0000E-01   2.4484E-01
3.4482E-02 5.0000E-01   2.7067E-01
4.0475E-02 5.0000E-01   2.9238E-01
4.6619E-02 5.0000E-01   3.1115E-01
5.2902E-02 5.0000E-01   3.2784E-01
5.9312E-02 5.0000E-01   3.4274E-01
6.5840E-02 5.0000E-01   3.5584E-01
7.2478E-02 5.0000E-01   3.6686E-01
7.9219E-02 5.0000E-01   3.7558E-01
8.6056E-02 5.0000E-01   3.8172E-01
9.2986E-02 5.0000E-01   3.8525E-01
1.0000E-01 5.0000E-01   3.8611E-01
1.0710E-01 5.0000E-01   3.8452E-01
1.1428E-01 5.0000E-01   3.8065E-01
1.2154E-01 5.0000E-01   3.7492E-01
1.2887E-01 5.0000E-01   3.6761E-01
1.3626E-01 5.0000E-01   3.5921E-01
1.4373E-01 5.0000E-01   3.5001E-01
1.5126E-01 5.0000E-01   3.4047E-01
1.5886E-01 5.0000E-01   3.3074E-01
1.6651E-01 5.0000E-01   3.2123E-01
1.7423E-01 5.0000E-01   3.1188E-01
1.8200E-01 5.0000E-01   3.0303E-01
1.8982E-01 5.0000E-01   2.9445E-01
1.9771E-01 5.0000E-01   2.8642E-01
2.0564E-01 5.0000E-01   2.7860E-01
2.1363E-01 5.0000E-01   2.7129E-01
2.2166E-01 5.0000E-01   2.6405E-01
2.2975E-01 5.0000E-01   2.5724E-01
2.3788E-01 5.0000E-01   2.5037E-01
2.4606E-01 5.0000E-01   2.4387E-01
2.5428E-01 5.0000E-01   2.3719E-01
2.6255E-01 5.0000E-01   2.3085E-01
2.7086E-01 5.0000E-01   2.2422E-01
2.7922E-01 5.0000E-01   2.1793E-01
2.8762E-01 5.0000E-01   2.1127E-01
2.9606E-01 5.0000E-01   2.0495E-01
3.0453E-01 5.0000E-01   1.9816E-01
3.1305E-01 5.0000E-01   1.9173E-01
3.2161E-01 5.0000E-01   1.8474E-01
3.3020E-01 5.0000E-01   1.7813E-01
3.3884E-01 5.0000E-01   1.7087E-01
3.4751E-01 5.0000E-01   1.6402E-01
3.5621E-01 5.0000E-01   1.5643E-01
3.6495E-01 5.0000E-01   1.4929E-01
3.7373E-01 5.0000E-01   1.4132E-01
3.8254E-01 5.0000E-01   1.3387E-01
3.9139E-01 5.0000E-01   1.2550E-01
4.0026E-01 5.0000E-01   1.1772E-01
4.0918E-01 5.0000E-01   1.0893E-01
4.1812E-01 5.0000E-01   1.0082E-01
4.2709E-01 5.0000E-01   9.1624E-02
4.3610E-01 5.0000E-01   8.3216E-02
4.4514E-01 5.0000E-01   7.3634E-02
4.5421E-01 5.0000E-01   6.4963E-02
4.6331E-01 5.0000E-01   5.5035E-02
4.7244E-01 5.0000E-01   4.6153E-02
4.8160E-01 5.0000E-01   3.5932E-02
4.9078E-01 5.0000E-01   2.6906E-02
5.0000E-01 5.0000E-01   1.6453E-02
5.0922E-01 5.0000E-01   7.3835E-03
5.1840E-01 5.0000E-01  -3.1140E-03
5.2756E-01 5.0000E-01  -1.2093E-02
5.3669E-01 5.0000E-01  -2.2519E-02
5.4579E-01 5.0000E-01  -3.1335E-02
5.5486E-01 5.0000E-01  -4.1618E-02
5.6390E-01 5.0000E-01  -5.0208E-02
5.7291E-01 5.0000E-01  -6.0288E-02
5.8188E-01 5.0000E-01  -6.8601E-02
5.9082E-01 5.0000E-01  -7.8428E-02
5.9974E-01 5.0000E-01  -8.6428E-02
6.0861E-01 5.0000E-01  -9.5968E-02
6.1746E-01 5.0000E-01  -1.0364E-01
6.2627E-01 5.0000E-01  -1.1287E-01
6.3505E-01 5.0000E-01  -1.2020E-01
6.4379E-01 5.0000E-01  -1.2913E-01
6.5249E-01 5.0000E-01  -1.3614E-01
6.6116E-01 5.0000E-01  -1.4478E-01
6.6980E-01 5.0000E-01  -1.5151E-01
6.7839E-01 5.0000E-01  -1.5988E-01
6.8695E-01 5.0000E-01  -1.6637E-01
6.9547E-01 5.0000E-01  -1.7453E-01
7.0394E-01 5.0000E-01  -1.8085E-01
7.1238E-01 5.0000E-01  -1.8885E-01
7.2078E-01 5.0000E-01  -1.9506E-01
7.2914E-01 5.0000E-01  -2.0298E-01
7.3745E-01 5.0000E-01  -2.0919E-01
7.4572E-01 5.0000E-01  -2.1709E-01
7.5394E-01 5.0000E-01  -2.2339E-01
7.6212E-01 5.0000E-01  -2.3137E-01
7.7025E-01 5.0000E-01  -2.3784E-01
7.7834E-01 5.0000E-01  -2.4598E-01
7.8637E-01 5.0000E-01  -2.5271E-01
7.9436E-01 5.0000E-01  -2.6106E-01
8.0229E-01 5.0000E-01  -2.6808E-01
8.1018E-01 5.0000E-01  -2.7663E-01
8.1800E-01 5.0000E-01  -2.8391E-01
8.2577E-01 5.0000E-01  -2.9259E-01
8.3349E-01 5.0000E-01  -3.0004E-01
8.4114E-01 5.0000E-01  -3.0872E-01
8.4874E-01 5.0000E-01  -3.1621E-01
8.5627E-01 5.0000E-01  -3.2481E-01
8.6374E-01 5.0000E-01  -3.3242E-01
8.7113E-01 5.0000E-01  -3.4127E-01
8.7846E-01 5.0000E-01  -3.4974E-01
8.8572E-01 5.0000E-01  -3.6015E-01
8.9290E-01 5.0000E-01  -3.7153E-01
9.0000E-01 5.0000E-01  -3.8630E-01
9.0701E-01 5.0000E-01  -4.0376E-01
9.1394E-01 5.0000E-01  -4.2576E-01
9.2078E-01 5.0000E-01  -4.5062E-01
9.2752E-01 5.0000E-01  -4.7787E-01
9.3416E-01 5.0000E-01  -5.0306E-01
9.4069E-01 5.0000E-01  -5.2232E-01
9.4710E-01 5.0000E-01  -5.2900E-01
9.5338E-01 5.0000E-01  -5.1863E-01
9.5953E-01 5.0000E-01  -4.8758E-01
9.6552E-01 5.0000E-01  -4.3648E-01
9.7134E-01 5.0000E-01  -3.6926E-01
9.7697E-01 5.0000E-01  -2.9247E-01
9.8238E-01 5.0000E-01  -2.1423E-01
9.8753E-01 5.0000E-01  -1.4135E-01
9.9233E-01 5.0000E-01  -7.9402E-02
9.9666E-01 5.0000E-01  -3.1185E-02
1.0000E+00 5.0000E-01   0.0000E+00