1 1 3.199408
1 2 3.198249
1 3 3.200264
1 4 3.205195
1 5 3.260704
1 6 3.265210
1 7 3.264376
1 8 3.259385
1 9 3.265393
1 10 3.263909
1 11 3.266175
1 12 3.266485
1 13 3.264285
1 14 3.265603
1 15 3.265344
1 16 3.291326
1 17 3.274293
1 18 3.273247
1 19 3.269710
1 20 3.283387
1 21 3.293130
1 22 3.281782
1 23 3.293833
1 24 3.273529
1 25 3.289775
1 26 3.287492
1 27 3.283344
1 28 3.293338
1 29 3.293702
1 30 3.299814
1 31 3.284289
1 32 3.308221
1 33 3.289835
1 34 3.316689
1 35 3.299808
1 36 3.306379
1 37 3.295644
1 38 3.295707
1 39 3.291527
1 40 3.319980
1 41 3.303596
1 42 3.319225
1 43 3.294234
1 44 3.333053
1 45 3.304562
1 46 3.330832
1 47 3.308872
1 48 3.324751
1 49 3.316561
1 50 3.309924
1 51 3.307680
1 52 3.340689
1 53 3.308434
1 54 3.316781
1 55 3.315911
1 56 3.353223
1 57 3.321818
1 58 3.351119
1 59 3.311055
1 60 3.382138
1 61 3.397435
1 62 3.374788
1 63 3.462831
1 64 3.490007
1 65 3.568585
1 66 3.917109
1 67 4.537780
1 68 5.471957
1 69 4.842690
1 70 4.429370
1 71 4.409046
1 72 3.975821
1 73 3.578490
1 74 3.581784
1 75 4.005973
1 76 4.055998
1 77 3.676112
1 78 3.756696
1 79 4.228360
1 80 4.682487
1 81 4.638891
1 82 3.973924
1 83 5.047958
1 84 5.101709
1 85 4.467718
1 86 3.692707
1 87 3.568984
1 88 3.592512
1 89 3.589489
1 90 3.535995
1 91 3.506488
1 92 3.518822
1 93 3.744301
1 94 3.800356
1 95 3.773019
1 96 3.577015
1 97 3.486916
1 98 3.421229
1 99 3.491239
1 100 3.454405
1 101 3.526479
1 102 3.526893
1 103 3.503047
1 104 3.511892
1 105 3.519106
1 106 3.710452
1 107 3.960560
1 108 4.123403
1 109 3.625564
1 110 3.858672
1 111 3.822523
1 112 3.939809
1 113 3.590921
1 114 3.527169
1 115 3.609046
1 116 3.557683
1 117 3.529439
1 118 3.767624
1 119 3.512167
1 120 3.793681
1 121 3.689572
1 122 3.846263
1 123 3.812715
1 124 3.944082
1 125 3.890725
1 126 3.915615
1 127 4.535404
1 128 3.707019
1 129 3.973880
1 130 3.659334
1 131 4.113479
1 132 3.808158
1 133 3.660389
1 134 3.719605
1 135 3.966453
1 136 4.049718
1 137 3.576425
1 138 3.757768
1 139 3.489669
1 140 3.480499
1 141 3.487191
1 142 3.608297
1 143 3.647635
1 144 3.446128
1 145 3.532819
1 146 3.581576
1 147 3.435572
1 148 3.449073
1 149 3.433526
1 150 3.551880
1 151 3.587763
1 152 3.480813
1 153 3.476027
1 154 3.555088
1 155 3.476913
1 156 3.622945
1 157 3.493813
1 158 3.496213
1 159 3.628212
1 160 3.639109
1 161 3.612106
1 162 3.456584
1 163 3.493988
1 164 3.681455
1 165 3.648726
1 166 3.522285
1 167 3.685927
1 168 3.557101
1 169 3.554202
1 170 3.574362
1 171 3.544965
1 172 3.684913
1 173 3.729235
1 174 3.572604
1 175 3.777021
1 176 3.734134
1 177 3.557248
1 178 3.545171
1 179 3.551282
1 180 3.709491
1 181 3.547145
1 182 3.544398
1 183 3.551526
1 184 3.548863
1 185 3.739746
1 186 3.700118
1 187 3.738289
1 188 3.714612
1 189 3.740320
1 190 3.560144
1 191 3.823916
1 192 3.917886
1 193 3.832526
1 194 4.086115
1 195 3.834759
1 196 4.033227
1 197 4.022430
1 198 4.242316
1 199 4.521519
1 200 5.317413
1 201 4.595349
1 202 4.670292
1 203 5.079991
1 204 4.612094
1 205 5.032671
1 206 4.817429
1 207 3.934874
1 208 4.388512
1 209 4.475215
1 210 5.070315
1 211 5.612975
1 212 4.620403
1 213 4.511596
1 214 4.277633
1 215 4.402160
1 216 3.735402
1 217 3.578613
1 218 3.699883
1 219 3.713234
1 220 3.704525
1 221 3.728554
1 222 3.703772
1 223 3.738886
1 224 3.724430
1 225 3.723186
1 226 3.735438
1 227 3.702739
1 228 3.731070
1 229 3.674841
1 230 3.694245
1 231 3.693271
1 232 3.698025
1 233 3.712136
1 234 3.704190
1 235 3.702071
1 236 3.672218
1 237 3.690805
1 238 3.658729
1 239 3.655032
1 240 3.635580
1 241 3.467541
1 242 3.481145
1 243 3.449686
1 244 3.529854
1 245 3.597714
1 246 3.539959
1 247 3.597688
1 248 3.554036
1 249 3.536211
1 250 3.536740
1 251 3.511155
1 252 3.533356
1 253 3.521453
1 254 3.511104
1 255 3.538169
1 256 3.784359
1 257 3.527557
1 258 3.530807
1 259 3.545707
1 260 3.586166
1 261 3.558152
1 262 3.577253
1 263 3.539645
1 264 3.545752
1 265 3.911424
1 266 3.585716
1 267 3.666623
1 268 3.547714
1 269 3.698912
1 270 3.541094
1 271 3.553743
1 272 3.607628
1 273 3.588877
1 274 3.558761
1 275 3.615597
1 276 3.530979
1 277 3.564176
1 278 3.607174
1 279 3.627069
1 280 3.547100
1 281 3.617163
1 282 3.621762
1 283 3.582259
1 284 3.547653
1 285 3.562044
1 286 3.630386
1 287 3.554816
1 288 3.551619
1 289 3.779090
1 290 3.589276
1 291 3.570668
1 292 3.608312
1 293 3.600519
1 294 3.748944
1 295 3.583695
1 296 3.577083
1 297 3.634713
1 298 3.587948
1 299 3.572854
1 300 3.596339
1 301 3.754466
1 302 3.709664
1 303 3.865183
1 304 3.783437
1 305 3.859351
1 306 3.877200
1 307 3.988745
1 308 3.915712
1 309 3.753051
1 310 3.636512
1 311 3.968850
1 312 4.142073
1 313 3.834865
1 314 3.802042
1 315 4.020604
1 316 3.706628
1 317 3.745471
1 318 3.603340
1 319 3.685479
1 320 3.772767
1 321 3.606134
1 322 3.626946
1 323 3.625920
1 324 3.621467
1 325 3.615009
1 326 3.613601
1 327 3.626090
1 328 3.607166
1 329 3.599998
1 330 3.628506
1 331 3.662676
1 332 3.615601
1 333 3.609369
1 334 3.625948
1 335 3.617710
1 336 3.661715
1 337 3.616158
1 338 3.631113
1 339 3.668220
1 340 3.642146
1 341 3.617044
1 342 3.841200
1 343 4.472363
1 344 4.901489
1 345 5.303196
1 346 4.746823
1 347 5.243896
1 348 4.155904
1 349 4.844079
1 350 3.992805
10 1 30.654947
10 2 22.669207
10 3 21.259398
10 4 15.433987
10 5 9.356687
10 6 7.817110
10 7 6.655047
10 8 6.612417
10 9 6.667280
10 10 3.335223
10 11 3.340625
10 12 3.331247
10 13 3.323178
10 14 3.304768
10 15 3.315116
10 16 3.309011
10 17 3.346321
10 18 3.336630
10 19 3.355090
10 20 3.369185
10 21 4.679386
10 22 4.876525
10 23 5.780635
10 24 6.682228
10 25 5.234218
10 26 5.166128
10 27 4.320709
10 28 5.528112
10 29 6.330259
10 30 6.416331
10 31 5.559060
10 32 4.299969
10 33 3.763516
10 34 4.343580
10 35 4.099626
10 36 4.231762
10 37 4.248029
10 38 4.069194
10 39 4.253623
10 40 4.518192
10 41 3.674809
10 42 4.155422
10 43 4.104127
10 44 4.684600
10 45 5.163691
10 46 5.836406
10 47 5.381238
10 48 5.684679
10 49 6.343107
10 50 6.512080
10 51 6.797423
10 52 7.447934
10 53 7.509386
10 54 6.727230
10 55 7.341274
10 56 6.531253
10 57 6.740785
10 58 6.639508
10 59 6.415660
10 60 7.575833
10 61 7.743159
10 62 7.779267
10 63 6.709468
10 64 7.785010
10 65 7.797593
10 66 7.797554
10 67 7.438659
10 68 7.441943
10 69 6.846424
10 70 4.537691
10 71 3.500554
10 72 3.445422
10 73 3.393392
10 74 3.447408
10 75 3.404879
10 76 3.484536
10 77 3.955071
10 78 4.179711
10 79 4.186411
10 80 4.906889
10 81 5.034595
10 82 6.010810
10 83 6.318139
10 84 6.121790
10 85 6.934775
10 86 6.537999
10 87 6.025178
10 88 6.203708
10 89 6.020615
10 90 5.077902
10 91 4.450164
10 92 4.751470
10 93 4.663925
10 94 4.680194
10 95 6.235765
10 96 4.288012
10 97 4.513177
10 98 3.973731
10 99 4.754336
10 100 4.677590
10 101 6.412628
10 102 6.483729
10 103 6.722703
10 104 6.769087
10 105 6.640080
10 106 6.963572
10 107 6.725742
10 108 6.747454
10 109 6.802632
10 110 6.620066
10 111 6.731903
10 112 6.882509
10 113 6.717178
10 114 6.671910
10 115 6.714693
10 116 6.451337
10 117 5.596975
10 118 4.706407
10 119 4.567491
10 120 3.729646
10 121 3.462048
10 122 3.562760
10 123 3.552875
10 124 3.597336
10 125 3.812223
10 126 4.095133
10 127 5.141593
10 128 5.404087
10 129 5.197041
10 130 5.407714
10 131 4.914589
10 132 4.562875
10 133 4.404384
10 134 5.089017
10 135 4.373788
10 136 4.367126
10 137 4.344229
10 138 4.180203
10 139 4.576076
10 140 6.065855
10 141 5.421362
10 142 5.183555
10 143 3.950699
10 144 4.281650
10 145 3.890694
10 146 4.370575
10 147 5.542786
10 148 6.160959
10 149 7.364362
10 150 6.982313
10 151 6.687964
10 152 6.732529
10 153 6.711304
10 154 6.822667
10 155 5.031973
10 156 5.534268
10 157 5.110426
10 158 5.942241
10 159 7.354658
10 160 6.702942
10 161 7.376413
10 162 6.812772
10 163 6.777109
10 164 6.834196
10 165 7.699934
10 166 6.569257
10 167 7.007714
10 168 7.241055
10 169 5.893395
10 170 4.950487
10 171 5.848911
10 172 6.553850
10 173 6.479276
10 174 6.451318
10 175 6.538342
10 176 6.903234
10 177 6.761157
10 178 6.811172
10 179 7.090881
10 180 6.866597
10 181 6.653338
10 182 7.065447
10 183 6.024258
10 184 5.397235
10 185 4.857656
10 186 4.842032
10 187 5.815329
10 188 7.070314
10 189 6.702318
10 190 6.694507
10 191 6.766895
10 192 6.820786
10 193 6.980472
10 194 6.901333
10 195 6.927670
10 196 6.939141
10 197 6.930501
10 198 7.398222
10 199 5.804616
10 200 6.256445
10 201 6.122121
10 202 4.122455
10 203 3.657058
10 204 3.971998
10 205 3.574662
10 206 3.593261
10 207 3.575092
10 208 3.569345
10 209 3.706887
10 210 4.293114
10 211 4.942841
10 212 5.904065
10 213 6.624235
10 214 6.667038
10 215 6.903825
10 216 6.778994
10 217 6.222029
10 218 6.009259
10 219 5.729429
10 220 6.078915
10 221 6.378095
10 222 5.836935
10 223 4.785099
10 224 4.537515
10 225 4.230199
10 226 4.664797
10 227 4.505107
10 228 5.519583
10 229 6.689385
10 230 6.621948
10 231 6.971952
10 232 7.587519
10 233 7.164407
10 234 7.022344
10 235 6.992535
10 236 7.918179
10 237 7.699136
10 238 7.020364
10 239 6.954172
10 240 6.997649
10 241 7.827207
10 242 8.015512
10 243 8.137423
10 244 7.214081
10 245 7.189625
10 246 7.236292
10 247 7.110769
10 248 7.188406
10 249 6.387085
10 250 5.651974
10 251 4.599699
10 252 4.385847
10 253 3.715833
10 254 4.587849
10 255 4.119943
10 256 4.265752
10 257 4.810345
10 258 5.798021
10 259 5.962069
10 260 4.147340
10 261 3.754968
10 262 3.565381
10 263 4.030457
10 264 3.569550
10 265 4.052703
10 266 4.100458
10 267 3.598438
10 268 4.377929
10 269 3.672470
10 270 3.575598
10 271 3.575786
10 272 3.569197
10 273 3.580564
10 274 4.154015
10 275 3.899763
10 276 3.946153
10 277 3.714477
10 278 4.368331
10 279 3.956731
10 280 5.045090
10 281 5.226199
10 282 4.456308
10 283 4.667436
10 284 3.788450
10 285 3.723359
10 286 3.736839
10 287 4.559151
10 288 5.226571
10 289 6.446824
10 290 6.938658
10 291 6.095462
10 292 4.884217
10 293 5.710714
10 294 6.180837
10 295 6.524744
10 296 7.221942
10 297 7.479961
10 298 6.260602
10 299 5.977878
10 300 6.604607
10 301 7.682716
10 302 7.192312
10 303 7.207452
10 304 7.559828
10 305 7.250856
10 306 7.172905
10 307 7.028778
10 308 7.693253
10 309 5.858594
10 310 7.233740
10 311 6.657245
10 312 7.094419
10 313 7.303012
10 314 7.238262
10 315 8.425726
10 316 8.231707
10 317 7.263231
10 318 5.072960
10 319 4.558888
10 320 4.535914
10 321 4.661527
10 322 4.211558
10 323 4.891731
10 324 5.755335
10 325 6.913699
10 326 6.369985
10 327 7.420563
10 328 6.710073
10 329 7.036296
10 330 6.546847
10 331 5.038961
10 332 4.370465
10 333 4.412471
10 334 4.835734
10 335 5.874912
10 336 7.471055
10 337 7.068280
10 338 7.311169
10 339 7.123571
10 340 6.942079
10 341 7.307055
10 342 7.385218
10 343 7.488393
10 344 7.278798
10 345 7.302194
10 346 7.400094
10 347 6.861921
10 348 7.272562
10 349 7.700389
10 350 6.751529
20 1 77.860188
20 2 48.156038
20 3 28.080671
20 4 26.189826
20 5 16.826420
20 6 14.654949
20 7 12.408921
20 8 12.125101
20 9 11.766632
20 10 9.908965
20 11 10.167292
20 12 10.630063
20 13 12.285976
20 14 10.785645
20 15 8.563317
20 16 8.858206
20 17 7.375476
20 18 7.102207
20 19 8.203852
20 20 5.757871
20 21 6.213395
20 22 6.367358
20 23 6.432272
20 24 6.504235
20 25 6.518614
20 26 6.535415
20 27 7.660898
20 28 7.536381
20 29 7.624223
20 30 6.508464
20 31 7.623204
20 32 7.449752
20 33 7.774929
20 34 6.627524
20 35 8.296926
20 36 6.546480
20 37 6.576884
20 38 6.312435
20 39 5.895647
20 40 6.283314
20 41 6.284626
20 42 6.534520
20 43 6.419613
20 44 6.548283
20 45 6.560954
20 46 6.512677
20 47 5.601134
20 48 4.157967
20 49 4.137272
20 50 4.562690
20 51 5.254490
20 52 5.878462
20 53 6.477397
20 54 6.515534
20 55 6.472447
20 56 6.418884
20 57 6.544957
20 58 6.681095
20 59 6.689460
20 60 6.746520
20 61 6.711542
20 62 7.158351
20 63 7.796736
20 64 6.765916
20 65 6.807547
20 66 6.628342
20 67 6.714626
20 68 7.008293
20 69 6.624682
20 70 6.585947
20 71 6.628020
20 72 6.701480
20 73 6.624973
20 74 6.791594
20 75 7.876433
20 76 7.732125
20 77 7.681374
20 78 6.774767
20 79 7.780638
20 80 7.674292
20 81 6.723507
20 82 7.680488
20 83 7.739288
20 84 7.815416
20 85 6.766293
20 86 6.831242
20 87 7.968097
20 88 6.618385
20 89 6.739603
20 90 6.754998
20 91 6.611595
20 92 6.439423
20 93 6.529732
20 94 7.471788
20 95 6.718696
20 96 7.067141
20 97 6.555603
20 98 6.709520
20 99 6.742063
20 100 6.812116
20 101 6.571799
20 102 6.900227
20 103 6.801319
20 104 6.013920
20 105 6.670234
20 106 7.250160
20 107 6.656491
20 108 5.885642
20 109 5.578580
20 110 5.779314
20 111 6.920444
20 112 6.997517
20 113 6.037988
20 114 7.071572
20 115 7.120731
20 116 6.451756
20 117 6.253350
20 118 6.718807
20 119 6.907502
20 120 6.459071
20 121 6.397175
20 122 7.271825
20 123 6.791982
20 124 6.657713
20 125 6.751210
20 126 6.663961
20 127 7.731040
20 128 7.422358
20 129 6.984201
20 130 6.688602
20 131 7.887307
20 132 6.772425
20 133 7.218998
20 134 6.762492
20 135 7.017578
20 136 7.762931
20 137 6.736818
20 138 6.762514
20 139 6.736524
20 140 6.935775
20 141 6.743229
20 142 6.767019
20 143 6.777630
20 144 6.879063
20 145 6.751226
20 146 7.142271
20 147 6.545132
20 148 6.914512
20 149 5.445954
20 150 5.182231
20 151 4.451916
20 152 5.260392
20 153 5.030145
20 154 6.335117
20 155 6.864740
20 156 4.292835
20 157 4.810241
20 158 4.955641
20 159 5.132221
20 160 5.815306
20 161 6.077168
20 162 7.026778
20 163 6.681741
20 164 6.577144
20 165 7.402383
20 166 7.470929
20 167 7.005222
20 168 7.908710
20 169 6.836543
20 170 6.838130
20 171 8.082651
20 172 7.894459
20 173 6.824966
20 174 6.828871
20 175 6.813911
20 176 6.836732
20 177 8.118085
20 178 8.608210
20 179 7.015479
20 180 6.911160
20 181 8.142481
20 182 6.898669
20 183 7.592421
20 184 7.177751
20 185 7.314910
20 186 7.310329
20 187 7.443754
20 188 7.253767
20 189 7.127221
20 190 6.941075
20 191 6.915108
20 192 7.067204
20 193 7.889735
20 194 7.588376
20 195 6.908258
20 196 6.981724
20 197 6.904306
20 198 6.944735
20 199 6.955941
20 200 6.940720
20 201 6.875468
20 202 6.923505
20 203 6.940084
20 204 7.999209
20 205 6.933355
20 206 6.899923
20 207 6.935227
20 208 6.974221
20 209 7.086213
20 210 6.904786
20 211 7.745515
20 212 7.592088
20 213 6.904294
20 214 7.158322
20 215 6.724650
20 216 7.634100
20 217 6.681204
20 218 6.691423
20 219 7.022486
20 220 6.849603
20 221 6.258771
20 222 6.483724
20 223 4.553400
20 224 4.624844
20 225 4.452400
20 226 4.527089
20 227 4.876500
20 228 6.484589
20 229 7.363148
20 230 7.132874
20 231 8.096838
20 232 7.010964
20 233 6.992677
20 234 7.098036
20 235 7.163814
20 236 7.990976
20 237 6.994550
20 238 7.010234
20 239 6.950643
20 240 7.006257
20 241 7.045294
20 242 8.194143
20 243 8.323624
20 244 7.042755
20 245 8.194994
20 246 8.095451
20 247 8.035626
20 248 7.046628
20 249 7.632561
20 250 7.357341
20 251 7.447024
20 252 7.271965
20 253 7.229815
20 254 7.024166
20 255 6.917070
20 256 6.418777
20 257 5.468205
20 258 5.274529
20 259 4.123675
20 260 4.761670
20 261 5.345614
20 262 5.686129
20 263 6.158288
20 264 6.573753
20 265 5.359838
20 266 6.589948
20 267 6.232826
20 268 7.173622
20 269 7.061670
20 270 6.606259
20 271 6.784619
20 272 7.034517
20 273 7.063633
20 274 6.098717
20 275 6.486554
20 276 6.804557
20 277 6.922716
20 278 6.998901
20 279 7.404931
20 280 6.381757
20 281 7.292581
20 282 7.449115
20 283 7.280017
20 284 6.586103
20 285 5.320379
20 286 5.131928
20 287 4.654856
20 288 4.551578
20 289 4.094438
20 290 5.152106
20 291 4.993262
20 292 5.370380
20 293 6.251348
20 294 6.609551
20 295 6.732285
20 296 6.439174
20 297 6.591441
20 298 6.518140
20 299 6.718288
20 300 6.865960
20 301 7.962962
20 302 8.044250
20 303 8.424361
20 304 7.442371
20 305 7.258954
20 306 7.193175
20 307 8.115802
20 308 7.642195
20 309 8.149316
20 310 7.502177
20 311 7.322284
20 312 7.337706
20 313 8.362794
20 314 7.743528
20 315 8.436835
20 316 8.441646
20 317 8.259848
20 318 7.505299
20 319 8.348559
20 320 8.574136
20 321 7.267211
20 322 7.397432
20 323 8.367905
20 324 8.332377
20 325 7.380877
20 326 8.302985
20 327 8.280434
20 328 8.247798
20 329 7.293504
20 330 7.369857
20 331 8.539642
20 332 8.169544
20 333 8.261704
20 334 8.468043
20 335 7.874905
20 336 7.724284
20 337 7.250217
20 338 7.739179
20 339 6.870298
20 340 5.497937
20 341 5.517999
20 342 5.891100
20 343 7.268054
20 344 6.736030
20 345 7.967471
20 346 8.333213
20 347 7.885632
20 348 6.943187
20 349 7.493360
20 350 8.389233
50 1 183.262379
50 2 80.692724
50 3 69.897920
50 4 55.679694
50 5 35.495346
50 6 41.257365
50 7 33.125530
50 8 29.993142
50 9 29.148706
50 10 21.534394
50 11 19.586877
50 12 15.926999
50 13 15.625189
50 14 16.976567
50 15 14.606676
50 16 15.704169
50 17 15.422192
50 18 14.695889
50 19 17.315626
50 20 15.640567
50 21 17.738501
50 22 18.834813
50 23 16.735613
50 24 15.906517
50 25 14.400321
50 26 14.695823
50 27 14.673193
50 28 15.108062
50 29 12.644511
50 30 12.700322
50 31 12.605875
50 32 12.643345
50 33 12.659575
50 34 12.576863
50 35 12.678463
50 36 14.087898
50 37 11.896811
50 38 12.045713
50 39 12.334333
50 40 11.497809
50 41 11.692912
50 42 12.393251
50 43 12.411201
50 44 12.612341
50 45 12.627651
50 46 12.767623
50 47 12.715327
50 48 12.626701
50 49 12.604432
50 50 6.591187
50 51 6.560136
50 52 7.276030
50 53 7.731955
50 54 7.922424
50 55 7.768178
50 56 7.814808
50 57 7.770601
50 58 7.853379
50 59 7.841940
50 60 7.673291
50 61 6.775480
50 62 7.815231
50 63 7.623668
50 64 7.031644
50 65 7.843380
50 66 7.764469
50 67 7.776052
50 68 7.805597
50 69 7.947006
50 70 7.853323
50 71 7.998956
50 72 7.784718
50 73 7.651384
50 74 7.912763
50 75 7.764404
50 76 7.856220
50 77 7.993082
50 78 7.711786
50 79 7.761379
50 80 7.746301
50 81 7.652457
50 82 7.783492
50 83 7.756962
50 84 7.880911
50 85 7.748431
50 86 7.270403
50 87 7.770882
50 88 7.914116
50 89 7.767744
50 90 7.537065
50 91 7.896895
50 92 7.112867
50 93 7.768558
50 94 7.733907
50 95 7.748593
50 96 7.853882
50 97 8.028655
50 98 7.880941
50 99 8.161879
50 100 7.716544
50 101 7.933747
50 102 7.928587
50 103 6.689614
50 104 7.770864
50 105 7.823469
50 106 7.480654
50 107 8.030882
50 108 7.936802
50 109 7.409295
50 110 7.894669
50 111 7.967220
50 112 7.900690
50 113 7.976198
50 114 8.009288
50 115 7.862338
50 116 7.836596
50 117 7.647726
50 118 7.936386
50 119 7.953215
50 120 7.964692
50 121 7.948094
50 122 7.313814
50 123 7.834263
50 124 8.076931
50 125 7.861719
50 126 7.858506
50 127 7.336170
50 128 8.041867
50 129 6.765808
50 130 8.051889
50 131 8.154068
50 132 7.814633
50 133 6.790539
50 134 6.943374
50 135 6.805323
50 136 7.900627
50 137 7.685956
50 138 8.006367
50 139 6.957023
50 140 6.793889
50 141 7.787534
50 142 8.103955
50 143 6.967665
50 144 6.806633
50 145 6.779786
50 146 6.777517
50 147 6.816788
50 148 6.855384
50 149 6.853992
50 150 8.016157
50 151 7.631958
50 152 8.064905
50 153 6.803951
50 154 7.822832
50 155 8.069241
50 156 7.434007
50 157 7.875806
50 158 6.845888
50 159 7.871106
50 160 7.263668
50 161 7.959294
50 162 8.182590
50 163 7.968978
50 164 7.838779
50 165 7.895286
50 166 7.948257
50 167 7.958483
50 168 8.088832
50 169 7.749129
50 170 7.936424
50 171 8.003950
50 172 7.948605
50 173 7.939076
50 174 7.982073
50 175 7.961104
50 176 7.168249
50 177 8.057360
50 178 8.113230
50 179 7.996821
50 180 7.906755
50 181 8.054818
50 182 8.000304
50 183 8.122212
50 184 7.374396
50 185 8.474288
50 186 8.303509
50 187 7.980307
50 188 8.112848
50 189 7.902902
50 190 7.887944
50 191 8.056580
50 192 7.986513
50 193 7.076839
50 194 7.006125
50 195 7.732291
50 196 7.851055
50 197 7.047151
50 198 8.170643
50 199 8.078101
50 200 6.953228
50 201 7.934063
50 202 8.242605
50 203 7.327142
50 204 8.176561
50 205 8.227672
50 206 6.964750
50 207 6.965929
50 208 7.964990
50 209 6.957254
50 210 8.198451
50 211 8.182289
50 212 8.040837
50 213 8.001146
50 214 7.937957
50 215 7.842936
50 216 7.298715
50 217 7.684342
50 218 7.129800
50 219 7.958879
50 220 7.563763
50 221 7.542480
50 222 6.995716
50 223 7.629749
50 224 8.010762
50 225 7.170586
50 226 6.996717
50 227 7.230363
50 228 7.527349
50 229 7.046072
50 230 7.932191
50 231 7.028484
50 232 7.064996
50 233 7.718796
50 234 7.014530
50 235 7.025267
50 236 8.144539
50 237 7.053530
50 238 7.546798
50 239 7.094104
50 240 7.161437
50 241 8.126727
50 242 8.182481
50 243 7.202111
50 244 8.341894
50 245 8.332085
50 246 8.464286
50 247 8.298855
50 248 8.577728
50 249 8.239387
50 250 8.229340
50 251 8.348344
50 252 7.322784
50 253 8.078952
50 254 8.330306
50 255 8.346480
50 256 8.335417
50 257 8.198339
50 258 8.235600
50 259 8.349006
50 260 8.345045
50 261 8.443746
50 262 8.094726
50 263 8.301632
50 264 7.698672
50 265 8.223489
50 266 7.649814
50 267 8.466475
50 268 8.304824
50 269 7.992937
50 270 8.278156
50 271 8.385528
50 272 8.422124
50 273 8.291451
50 274 8.534592
50 275 8.186625
50 276 7.983658
50 277 8.234676
50 278 7.607321
50 279 7.224783
50 280 8.582182
50 281 8.174646
50 282 7.300874
50 283 8.614274
50 284 7.181923
50 285 7.325523
50 286 8.461770
50 287 8.212868
50 288 8.336541
50 289 8.220260
50 290 8.159844
50 291 8.244748
50 292 8.283902
50 293 8.545306
50 294 8.334807
50 295 7.459974
50 296 8.239333
50 297 8.507600
50 298 8.497389
50 299 8.347015
50 300 8.229388
50 301 8.363899
50 302 8.491222
50 303 8.246347
50 304 7.505634
50 305 8.450203
50 306 7.386755
50 307 8.525381
50 308 8.407116
50 309 8.337125
50 310 8.212600
50 311 8.612022
50 312 8.435601
50 313 8.429283
50 314 8.669820
50 315 7.435866
50 316 8.355935
50 317 8.057835
50 318 8.663517
50 319 8.509670
50 320 8.617597
50 321 8.426876
50 322 8.406908
50 323 8.419626
50 324 8.695918
50 325 8.322456
50 326 8.286714
50 327 7.830848
50 328 8.310891
50 329 8.524358
50 330 8.275491
50 331 8.180896
50 332 8.393802
50 333 8.398575
50 334 8.578707
50 335 8.305417
50 336 8.315174
50 337 8.948359
50 338 8.250587
50 339 8.108697
50 340 8.291104
50 341 8.258400
50 342 8.727527
50 343 8.426064
50 344 7.417037
50 345 8.439431
50 346 7.542518
50 347 8.479091
50 348 8.448947
50 349 8.526831
50 350 8.450985
100 1 356.490737
100 2 160.988127
100 3 163.622537
100 4 99.302125
100 5 91.796315
100 6 63.417412
100 7 79.839034
100 8 48.506686
100 9 68.005488
100 10 45.821665
100 11 56.937417
100 12 54.873965
100 13 47.705671
100 14 44.944393
100 15 44.215531
100 16 38.110145
100 17 36.465077
100 18 37.030159
100 19 34.480628
100 20 26.686124
100 21 26.176162
100 22 25.071685
100 23 30.474766
100 24 30.645403
100 25 26.750340
100 26 28.692094
100 27 28.603857
100 28 27.702476
100 29 24.718673
100 30 27.550477
100 31 24.955907
100 32 26.758151
100 33 24.766807
100 34 21.785715
100 35 22.850282
100 36 19.765176
100 37 18.742086
100 38 18.775335
100 39 18.878914
100 40 20.551904
100 41 20.299649
100 42 19.144096
100 43 22.256685
100 44 21.961399
100 45 18.750058
100 46 20.912050
100 47 18.761650
100 48 18.816942
100 49 18.761939
100 50 14.281601
100 51 12.704939
100 52 14.189135
100 53 14.537940
100 54 15.133945
100 55 15.090290
100 56 15.202933
100 57 15.173401
100 58 14.970053
100 59 14.793741
100 60 14.131252
100 61 14.939106
100 62 15.019211
100 63 14.828010
100 64 14.905094
100 65 14.125065
100 66 14.114246
100 67 14.098698
100 68 14.140511
100 69 15.120269
100 70 14.708282
100 71 15.211104
100 72 14.119918
100 73 14.120795
100 74 14.673485
100 75 14.123232
100 76 14.125822
100 77 14.125942
100 78 14.122030
100 79 14.168934
100 80 14.326873
100 81 15.237756
100 82 14.165448
100 83 14.143743
100 84 16.866738
100 85 17.029833
100 86 14.298838
100 87 14.149909
100 88 14.138549
100 89 14.128347
100 90 14.879311
100 91 14.162458
100 92 14.356055
100 93 14.134110
100 94 14.166723
100 95 15.108508
100 96 14.162800
100 97 14.196153
100 98 14.172982
100 99 14.172679
100 100 9.148884
100 101 10.078454
100 102 8.209278
100 103 8.115757
100 104 8.117090
100 105 9.947445
100 106 8.161416
100 107 8.137810
100 108 8.133250
100 109 8.125140
100 110 9.941011
100 111 9.964351
100 112 9.444702
100 113 8.321956
100 114 9.918593
100 115 8.142347
100 116 9.540348
100 117 8.328983
100 118 8.184788
100 119 8.155601
100 120 8.147711
100 121 8.207097
100 122 9.947924
100 123 9.926101
100 124 8.189676
100 125 9.850840
100 126 9.894801
100 127 9.270956
100 128 10.014530
100 129 8.265972
100 130 9.919789
100 131 9.944940
100 132 9.931289
100 133 8.659850
100 134 9.862237
100 135 10.040898
100 136 9.990572
100 137 9.917234
100 138 10.027397
100 139 10.090272
100 140 8.335016
100 141 8.231841
100 142 10.132725
100 143 10.247624
100 144 10.086979
100 145 9.935497
100 146 10.016774
100 147 8.237978
100 148 8.821091
100 149 8.264986
100 150 8.224275
100 151 10.092769
100 152 10.003362
100 153 10.049180
100 154 10.035210
100 155 9.928139
100 156 8.307170
100 157 9.264596
100 158 9.312730
100 159 8.375252
100 160 10.131008
100 161 8.329906
100 162 10.014485
100 163 10.002565
100 164 10.226642
100 165 8.275684
100 166 9.468297
100 167 10.126860
100 168 10.096337
100 169 10.116428
100 170 9.047345
100 171 10.272000
100 172 10.039539
100 173 10.086513
100 174 10.261803
100 175 8.381444
100 176 8.409378
100 177 10.516501
100 178 10.030241
100 179 9.786018
100 180 10.368405
100 181 10.251179
100 182 10.233653
100 183 10.269013
100 184 8.309294
100 185 8.365954
100 186 8.328556
100 187 8.335992
100 188 8.344044
100 189 9.319752
100 190 8.334967
100 191 10.181877
100 192 8.382917
100 193 10.460624
100 194 10.292168
100 195 10.130983
100 196 10.274906
100 197 8.393830
100 198 9.812165
100 199 10.067042
100 200 9.978420
100 201 9.695444
100 202 8.371898
100 203 8.395858
100 204 9.933254
100 205 8.400264
100 206 8.751832
100 207 9.785281
100 208 8.446329
100 209 8.425324
100 210 9.255693
100 211 10.019380
100 212 9.031518
100 213 8.448943
100 214 8.661419
100 215 8.610636
100 216 8.454444
100 217 8.420193
100 218 8.434837
100 219 9.118337
100 220 8.437591
100 221 8.435818
100 222 8.670413
100 223 8.478842
100 224 8.467330
100 225 8.637081
100 226 8.681394
100 227 8.475401
100 228 8.627565
100 229 9.800644
100 230 9.195169
100 231 8.438751
100 232 8.468877
100 233 10.240028
100 234 8.436275
100 235 8.724733
100 236 8.484719
100 237 9.494818
100 238 8.497401
100 239 8.692018
100 240 8.442407
100 241 9.537281
100 242 8.628725
100 243 10.214502
100 244 10.332180
100 245 10.098538
100 246 10.336396
100 247 10.162674
100 248 10.485484
100 249 8.691586
100 250 10.337296
100 251 10.371498
100 252 10.513712
100 253 8.570011
100 254 9.513368
100 255 8.517093
100 256 10.040714
100 257 10.219192
100 258 10.632823
100 259 10.259260
100 260 10.768316
100 261 10.353551
100 262 10.591706
100 263 9.391746
100 264 10.533270
100 265 10.328126
100 266 10.403930
100 267 8.598146
100 268 10.393763
100 269 10.317719
100 270 10.581410
100 271 10.303887
100 272 10.177199
100 273 10.348000
100 274 10.484741
100 275 8.566712
100 276 8.541788
100 277 8.645395
100 278 10.368461
100 279 8.584418
100 280 10.398692
100 281 10.786090
100 282 10.480168
100 283 8.587969
100 284 10.548789
100 285 8.592572
100 286 8.610407
100 287 10.384652
100 288 10.379217
100 289 10.284587
100 290 8.810376
100 291 9.354788
100 292 10.494514
100 293 10.458233
100 294 8.761572
100 295 10.577462
100 296 9.443387
100 297 10.431427
100 298 8.817295
100 299 10.491849
100 300 10.420139
100 301 9.018499
100 302 8.615547
100 303 8.708687
100 304 10.685214
100 305 10.698156
100 306 10.465894
100 307 10.034712
100 308 10.687506
100 309 8.785347
100 310 8.674299
100 311 9.128307
100 312 10.734612
100 313 10.557751
100 314 10.482511
100 315 10.521714
100 316 10.555631
100 317 10.434330
100 318 10.674133
100 319 10.666581
100 320 9.366556
100 321 10.619779
100 322 10.020771
100 323 10.577452
100 324 10.609899
100 325 10.570443
100 326 10.558669
100 327 10.532230
100 328 10.497141
100 329 10.575467
100 330 8.778719
100 331 10.703292
100 332 10.670506
100 333 8.772429
100 334 10.444477
100 335 10.618076
100 336 10.549235
100 337 9.810295
100 338 10.668438
100 339 10.666577
100 340 8.777853
100 341 8.993377
100 342 10.914700
100 343 10.596640
100 344 8.780481
100 345 8.762414
100 346 10.677872
100 347 10.225794
100 348 9.199113
100 349 10.795732
100 350 8.778638
200 1 694.534699
200 2 323.592369
200 3 254.487499
200 4 229.538159
200 5 159.991463
200 6 121.608987
200 7 149.746522
200 8 122.420720
200 9 123.230808
200 10 100.696527
200 11 77.799327
200 12 102.423667
200 13 96.476159
200 14 89.613725
200 15 81.769655
200 16 77.344523
200 17 73.842483
200 18 68.589021
200 19 67.588371
200 20 56.911801
200 21 62.715013
200 22 60.487581
200 23 54.474139
200 24 57.022921
200 25 53.761138
200 26 54.901692
200 27 57.683850
200 28 49.115432
200 29 48.356579
200 30 45.793588
200 31 50.207662
200 32 50.445457
200 33 43.482717
200 34 43.007945
200 35 36.966524
200 36 43.863764
200 37 37.477146
200 38 37.151635
200 39 37.031171
200 40 36.025055
200 41 37.121652
200 42 36.760453
200 43 32.521381
200 44 31.080172
200 45 33.057326
200 46 36.743390
200 47 34.099843
200 48 31.094729
200 49 31.081783
200 50 29.494477
200 51 29.137081
200 52 25.490701
200 53 29.438400
200 54 27.352315
200 55 24.920957
200 56 29.650751
200 57 29.470840
200 58 24.914593
200 59 25.089107
200 60 28.780772
200 61 30.882275
200 62 29.242748
200 63 29.085870
200 64 29.214751
200 65 29.072789
200 66 29.259646
200 67 24.023347
200 68 23.933102
200 69 23.270730
200 70 22.310295
200 71 23.405979
200 72 23.345618
200 73 26.459113
200 74 26.085776
200 75 22.862278
200 76 25.322718
200 77 21.719410
200 78 23.190178
200 79 26.022233
200 80 25.913111
200 81 21.857747
200 82 21.939736
200 83 26.343621
200 84 22.297295
200 85 22.546630
200 86 25.833820
200 87 26.340704
200 88 25.145070
200 89 26.673953
200 90 26.409081
200 91 21.734569
200 92 26.208017
200 93 21.725881
200 94 22.688346
200 95 25.984794
200 96 21.739710
200 97 21.768310
200 98 21.738280
200 99 21.754907
200 100 15.661064
200 101 15.797565
200 102 15.776706
200 103 17.234128
200 104 17.273342
200 105 18.008073
200 106 18.193223
200 107 17.216112
200 108 17.207365
200 109 17.048089
200 110 15.699952
200 111 15.888373
200 112 17.274174
200 113 15.857168
200 114 17.208232
200 115 18.587085
200 116 19.111831
200 117 16.139650
200 118 15.700198
200 119 18.260614
200 120 16.921386
200 121 19.257744
200 122 19.292128
200 123 19.283766
200 124 19.258714
200 125 19.245482
200 126 19.270328
200 127 19.269993
200 128 19.205068
200 129 19.243687
200 130 19.733736
200 131 19.426482
200 132 19.250667
200 133 19.246406
200 134 19.260483
200 135 19.259135
200 136 19.261622
200 137 19.266251
200 138 19.293582
200 139 20.976684
200 140 17.897138
200 141 20.933599
200 142 17.935240
200 143 17.913330
200 144 17.937807
200 145 21.191945
200 146 17.929434
200 147 17.918751
200 148 20.225821
200 149 17.908799
200 150 20.965126
200 151 18.604955
200 152 19.483331
200 153 18.122298
200 154 17.953318
200 155 18.329409
200 156 17.946191
200 157 21.239103
200 158 21.163045
200 159 19.012102
200 160 19.619584
200 161 21.371608
200 162 17.992978
200 163 21.727504
200 164 20.737097
200 165 21.284485
200 166 19.078821
200 167 21.418541
200 168 21.264884
200 169 18.062767
200 170 21.625168
200 171 21.517524
200 172 21.196662
200 173 22.055875
200 174 21.264949
200 175 18.631651
200 176 21.896335
200 177 18.082541
200 178 18.049568
200 179 18.205159
200 180 18.106248
200 181 21.408087
200 182 21.458960
200 183 21.470048
200 184 21.574440
200 185 21.587435
200 186 21.820456
200 187 22.192901
200 188 21.493471
200 189 21.454846
200 190 21.492572
200 191 21.481824
200 192 21.486662
200 193 21.488266
200 194 21.471548
200 195 21.422277
200 196 21.509006
200 197 21.660814
200 198 21.662055
200 199 21.670530
200 200 15.433240
200 201 15.447047
200 202 15.429804
200 203 15.423213
200 204 15.591952
200 205 15.724866
200 206 15.829312
200 207 15.498288
200 208 15.630199
200 209 15.621511
200 210 15.634039
200 211 15.634973
200 212 15.463027
200 213 15.459073
200 214 15.500584
200 215 15.484174
200 216 15.617270
200 217 15.613527
200 218 15.660417
200 219 15.756452
200 220 15.504769
200 221 15.826742
200 222 15.482890
200 223 15.665866
200 224 15.495890
200 225 15.517793
200 226 15.828563
200 227 15.681461
200 228 15.543411
200 229 15.518360
200 230 15.511596
200 231 15.687655
200 232 15.507948
200 233 15.496916
200 234 15.702012
200 235 15.526625
200 236 15.622059
200 237 15.735738
200 238 15.518612
200 239 15.523716
200 240 15.715969
200 241 15.564910
200 242 15.605472
200 243 15.507027
200 244 15.855152
200 245 15.515201
200 246 15.658943
200 247 15.622937
200 248 15.748636
200 249 15.526352
200 250 15.765961
200 251 15.675986
200 252 15.547281
200 253 15.837181
200 254 15.558054
200 255 16.176237
200 256 15.525616
200 257 15.766136
200 258 15.582350
200 259 15.882585
200 260 15.659392
200 261 15.627237
200 262 15.902890
200 263 15.612800
200 264 15.784306
200 265 15.714483
200 266 15.603553
200 267 15.615165
200 268 15.602788
200 269 15.610690
200 270 15.891832
200 271 15.597940
200 272 16.054166
200 273 15.598693
200 274 15.687910
200 275 15.624957
200 276 15.562226
200 277 15.755637
200 278 15.600683
200 279 15.631070
200 280 15.588788
200 281 15.771233
200 282 15.613782
200 283 15.717706
200 284 15.794371
200 285 15.606141
200 286 15.608232
200 287 15.702505
200 288 15.644666
200 289 15.750424
200 290 15.892174
200 291 15.652238
200 292 15.832372
200 293 15.624508
200 294 15.674027
200 295 15.889189
200 296 15.668124
200 297 15.728465
200 298 15.719187
200 299 15.746792
200 300 15.641131
200 301 15.779618
200 302 15.670907
200 303 15.647923
200 304 15.667872
200 305 15.709236
200 306 15.956909
200 307 15.898909
200 308 15.821100
200 309 15.714160
200 310 15.738160
200 311 15.669459
200 312 15.908479
200 313 15.727153
200 314 15.722581
200 315 15.732221
200 316 15.719340
200 317 15.728571
200 318 15.771926
200 319 15.715786
200 320 15.694112
200 321 15.761567
200 322 15.679434
200 323 15.729690
200 324 15.789010
200 325 15.724619
200 326 15.778437
200 327 15.961565
200 328 15.731219
200 329 15.872348
200 330 15.716685
200 331 15.762599
200 332 15.755635
200 333 15.907357
200 334 15.762777
200 335 15.891960
200 336 15.853149
200 337 15.878325
200 338 15.782651
200 339 15.829306
200 340 15.753126
200 341 15.770525
200 342 15.792023
200 343 15.813563
200 344 15.785527
200 345 16.025119
200 346 15.962601
200 347 15.846711
200 348 15.816670
200 349 15.770589
200 350 15.796212
500 1 1567.233280
500 2 820.763134
500 3 539.429180
500 4 476.984241
500 5 473.139348
500 6 402.286682
500 7 302.324058
500 8 261.945389
500 9 284.187758
500 10 249.598421
500 11 251.433863
500 12 201.315548
500 13 163.818459
500 14 190.604688
500 15 210.414580
500 16 188.022917
500 17 182.187986
500 18 142.340744
500 19 158.634674
500 20 170.057710
500 21 149.796832
500 22 151.278779
500 23 138.074865
500 24 118.886772
500 25 122.198291
500 26 129.162086
500 27 125.393337
500 28 125.491358
500 29 113.984119
500 30 115.850924
500 31 110.900226
500 32 103.472752
500 33 109.047845
500 34 97.780847
500 35 96.283450
500 36 94.512654
500 37 92.579346
500 38 87.375867
500 39 87.711992
500 40 84.174468
500 41 85.850211
500 42 86.088271
500 43 84.875065
500 44 74.149516
500 45 74.392278
500 46 80.300177
500 47 72.241252
500 48 80.906547
500 49 68.477150
500 50 70.297784
500 51 72.103276
500 52 64.404803
500 53 69.968431
500 54 63.572577
500 55 61.509072
500 56 58.370877
500 57 65.695436
500 58 62.847708
500 59 65.351044
500 60 58.541126
500 61 66.515728
500 62 67.203453
500 63 59.317989
500 64 59.163360
500 65 59.322785
500 66 59.128872
500 67 59.314596
500 68 59.157741
500 69 64.244988
500 70 59.193286
500 71 59.311989
500 72 53.248440
500 73 53.447397
500 74 52.313510
500 75 52.232348
500 76 52.097087
500 77 51.809704
500 78 51.775932
500 79 51.726712
500 80 62.781288
500 81 56.016165
500 82 51.820562
500 83 53.508269
500 84 45.734291
500 85 45.646638
500 86 52.386305
500 87 45.796451
500 88 44.627479
500 89 49.762500
500 90 44.650984
500 91 44.546542
500 92 55.069419
500 93 51.176687
500 94 51.694746
500 95 47.895785
500 96 48.824330
500 97 44.382739
500 98 44.397117
500 99 44.396043
500 100 45.661959
500 101 47.620292
500 102 38.584779
500 103 38.318164
500 104 38.575529
500 105 43.797614
500 106 38.474127
500 107 47.900887
500 108 44.435086
500 109 38.383165
500 110 40.673357
500 111 41.814604
500 112 39.546985
500 113 42.836226
500 114 44.125079
500 115 44.983979
500 116 44.309631
500 117 45.653295
500 118 39.660123
500 119 38.572664
500 120 38.836114
500 121 51.088422
500 122 51.043304
500 123 59.330978
500 124 51.151189
500 125 45.852290
500 126 45.172896
500 127 50.645608
500 128 41.759861
500 129 44.350448
500 130 41.590400
500 131 41.584543
500 132 41.556012
500 133 41.558418
500 134 46.845450
500 135 41.639199
500 136 50.154730
500 137 44.837898
500 138 41.797534
500 139 41.570366
500 140 41.548920
500 141 42.465439
500 142 41.664965
500 143 41.613919
500 144 41.730524
500 145 41.670376
500 146 47.954347
500 147 47.989534
500 148 40.531519
500 149 40.336528
500 150 40.751264
500 151 43.873617
500 152 46.021252
500 153 42.212480
500 154 42.939225
500 155 45.290521
500 156 40.397118
500 157 42.023302
500 158 40.664337
500 159 41.194097
500 160 48.034925
500 161 40.920787
500 162 40.621697
500 163 41.287782
500 164 41.193715
500 165 41.325806
500 166 41.066353
500 167 40.201851
500 168 41.806872
500 169 37.095039
500 170 34.453566
500 171 34.365145
500 172 34.345221
500 173 41.319267
500 174 37.539930
500 175 36.915488
500 176 41.470611
500 177 37.730669
500 178 39.163307
500 179 36.394129
500 180 37.535812
500 181 41.124036
500 182 41.591187
500 183 41.130281
500 184 41.315040
500 185 41.096061
500 186 41.822123
500 187 41.127439
500 188 41.129499
500 189 41.116792
500 190 37.694493
500 191 37.901615
500 192 37.764364
500 193 37.721658
500 194 37.956015
500 195 37.734326
500 196 37.958220
500 197 37.896812
500 198 37.983392
500 199 37.751621
500 200 37.793225
500 201 37.930012
500 202 37.967449
500 203 37.863466
500 204 37.847715
500 205 38.164379
500 206 37.825497
500 207 38.136627
500 208 37.976315
500 209 38.051327
500 210 37.928635
500 211 38.230952
500 212 37.856232
500 213 38.029065
500 214 37.852202
500 215 37.895125
500 216 38.063632
500 217 37.887734
500 218 37.962941
500 219 37.875597
500 220 36.679631
500 221 36.517297
500 222 36.557791
500 223 36.551981
500 224 37.014825
500 225 36.572567
500 226 36.814089
500 227 36.736551
500 228 47.876677
500 229 36.847277
500 230 37.730359
500 231 36.870869
500 232 37.393529
500 233 36.633794
500 234 37.011102
500 235 36.677753
500 236 36.877328
500 237 37.433898
500 238 36.654475
500 239 36.889011
500 240 36.651720
500 241 48.781247
500 242 48.932425
500 243 48.908655
500 244 48.709162
500 245 48.923532
500 246 49.319159
500 247 49.231788
500 248 49.395960
500 249 48.868000
500 250 42.931307
500 251 42.950376
500 252 43.491229
500 253 43.755916
500 254 43.007380
500 255 42.673026
500 256 43.217977
500 257 42.682788
500 258 42.606942
500 259 42.643790
500 260 36.735967
500 261 36.821538
500 262 36.596372
500 263 36.768467
500 264 37.594150
500 265 37.735456
500 266 36.832473
500 267 41.625295
500 268 37.003330
500 269 37.491326
500 270 36.604807
500 271 37.266595
500 272 36.597901
500 273 37.483668
500 274 37.275840
500 275 37.425840
500 276 36.724451
500 277 37.556536
500 278 36.786390
500 279 37.555034
500 280 37.006596
500 281 36.694233
500 282 36.906836
500 283 37.585168
500 284 36.697082
500 285 36.988862
500 286 37.038550
500 287 36.717925
500 288 36.573895
500 289 36.587244
500 290 36.810496
500 291 36.705202
500 292 36.815706
500 293 36.607603
500 294 36.737560
500 295 37.310417
500 296 36.824159
500 297 37.104482
500 298 36.563592
500 299 36.585152
500 300 36.607929
500 301 37.990471
500 302 37.978517
500 303 38.008499
500 304 37.966653
500 305 38.187638
500 306 37.957917
500 307 38.126447
500 308 37.980416
500 309 38.002963
500 310 37.919000
500 311 38.221015
500 312 38.271868
500 313 37.938150
500 314 38.181699
500 315 38.035528
500 316 38.177799
500 317 37.926116
500 318 38.591260
500 319 38.719680
500 320 38.257347
500 321 35.892145
500 322 35.113924
500 323 35.547967
500 324 34.603696
500 325 34.887569
500 326 37.894526
500 327 36.623197
500 328 38.147792
500 329 37.617342
500 330 34.762352
500 331 35.638513
500 332 34.802931
500 333 34.752218
500 334 34.813237
500 335 34.835231
500 336 34.697097
500 337 36.197015
500 338 34.791229
500 339 35.151401
500 340 34.644137
500 341 35.258943
500 342 34.626458
500 343 34.659158
500 344 37.198289
500 345 34.678552
500 346 36.693349
500 347 34.727131
500 348 34.815227
500 349 36.209111
500 350 35.182747
1000 1 3132.835360
1000 2 1727.204128
1000 3 1106.835309
1000 4 971.713585
1000 5 784.740907
1000 6 590.254602
1000 7 538.752920
1000 8 567.030916
1000 9 588.699385
1000 10 572.742496
1000 11 484.419402
1000 12 457.067817
1000 13 436.320232
1000 14 379.855137
1000 15 371.283516
1000 16 352.754163
1000 17 335.499205
1000 18 348.706724
1000 19 311.338096
1000 20 297.682056
1000 21 307.798074
1000 22 290.236600
1000 23 265.811947
1000 24 256.912289
1000 25 252.658556
1000 26 262.542103
1000 27 238.658077
1000 28 241.023067
1000 29 243.472746
1000 30 212.518313
1000 31 210.690647
1000 32 208.449299
1000 33 192.538602
1000 34 192.128695
1000 35 185.538848
1000 36 189.761305
1000 37 180.662079
1000 38 175.622759
1000 39 178.435121
1000 40 180.733533
1000 41 165.281449
1000 42 150.541326
1000 43 157.343061
1000 44 144.136765
1000 45 150.532693
1000 46 147.732199
1000 47 140.100380
1000 48 135.935025
1000 49 150.120112
1000 50 131.891073
1000 51 139.409886
1000 52 139.665719
1000 53 128.524653
1000 54 119.610916
1000 55 126.112101
1000 56 124.034225
1000 57 118.143148
1000 58 116.357927
1000 59 114.295093
1000 60 110.843385
1000 61 126.397069
1000 62 126.620504
1000 63 119.340104
1000 64 120.574231
1000 65 119.622788
1000 66 119.751440
1000 67 120.686492
1000 68 124.798332
1000 69 112.287965
1000 70 114.559999
1000 71 111.960538
1000 72 105.949011
1000 73 104.429027
1000 74 115.815837
1000 75 104.637753
1000 76 118.143588
1000 77 101.191466
1000 78 98.614622
1000 79 102.236278
1000 80 98.350765
1000 81 105.040599
1000 82 98.328475
1000 83 102.322968
1000 84 93.659379
1000 85 90.963554
1000 86 89.584147
1000 87 102.302773
1000 88 94.087745
1000 89 90.246024
1000 90 98.397364
1000 91 95.119964
1000 92 91.949635
1000 93 92.515494
1000 94 82.143826
1000 95 82.268570
1000 96 82.202610
1000 97 82.189662
1000 98 97.852585
1000 99 92.897417
1000 100 85.163819
1000 101 78.290848
1000 102 90.913898
1000 103 76.283871
1000 104 77.989987
1000 105 82.780208
1000 106 84.335351
1000 107 89.005578
1000 108 92.202224
1000 109 88.609762
1000 110 76.433466
1000 111 84.103871
1000 112 76.437240
1000 113 81.266915
1000 114 81.796721
1000 115 85.587687
1000 116 81.291788
1000 117 77.101173
1000 118 67.860289
1000 119 83.105972
1000 120 77.341030
1000 121 95.880899
1000 122 95.595924
1000 123 95.755391
1000 124 95.673750
1000 125 89.675449
1000 126 88.093264
1000 127 85.891310
1000 128 97.791505
1000 129 93.742494
1000 130 86.207260
1000 131 87.951379
1000 132 92.999090
1000 133 86.123299
1000 134 96.969957
1000 135 84.698714
1000 136 87.420751
1000 137 85.444552
1000 138 84.893799
1000 139 93.410607
1000 140 88.560242
1000 141 90.041255
1000 142 92.142553
1000 143 78.749932
1000 144 93.643210
1000 145 78.956783
1000 146 78.791159
1000 147 75.556164
1000 148 76.714856
1000 149 75.608249
1000 150 82.170277
1000 151 75.645788
1000 152 75.709616
1000 153 79.045913
1000 154 79.267267
1000 155 75.553209
1000 156 87.146840
1000 157 88.859718
1000 158 74.747383
1000 159 89.658390
1000 160 87.687863
1000 161 78.339820
1000 162 76.595336
1000 163 77.622675
1000 164 81.237408
1000 165 74.320111
1000 166 83.904751
1000 167 68.259575
1000 168 77.212680
1000 169 79.039822
1000 170 83.012220
1000 171 71.968964
1000 172 80.498793
1000 173 68.181211
1000 174 82.536601
1000 175 69.939121
1000 176 74.414073
1000 177 68.629585
1000 178 73.493832
1000 179 71.039619
1000 180 76.406639
1000 181 81.481774
1000 182 81.712990
1000 183 81.613375
1000 184 81.749375
1000 185 81.626918
1000 186 81.577654
1000 187 82.154120
1000 188 80.395141
1000 189 80.563516
1000 190 80.290795
1000 191 80.316811
1000 192 80.453064
1000 193 80.323929
1000 194 80.414158
1000 195 80.478837
1000 196 80.355882
1000 197 80.432094
1000 198 80.364228
1000 199 80.598520
1000 200 74.336854
1000 201 74.384207
1000 202 74.550121
1000 203 74.362149
1000 204 74.565641
1000 205 71.008972
1000 206 71.047469
1000 207 71.470492
1000 208 71.673486
1000 209 71.053599
1000 210 71.043074
1000 211 71.216657
1000 212 71.091171
1000 213 71.042224
1000 214 71.765301
1000 215 71.012683
1000 216 71.008596
1000 217 71.047819
1000 218 71.086353
1000 219 71.205152
1000 220 67.726115
1000 221 68.741641
1000 222 67.671275
1000 223 67.669127
1000 224 67.739845
1000 225 68.392063
1000 226 67.760259
1000 227 68.330482
1000 228 67.706033
1000 229 68.630643
1000 230 67.772868
1000 231 67.712088
1000 232 67.729275
1000 233 67.885115
1000 234 67.787675
