 Y     p_
  0.0000000E+00 -5.7100013E-02
  5.0000001E-02 -5.7200000E-02
  0.1000000     -5.7500005E-02
  0.1500000     -5.8400005E-02
  0.2000000     -6.0100004E-02
  0.2500000     -6.2900007E-02
  0.3000000     -6.6800013E-02
  0.3500000     -7.1400002E-02
  0.4000000     -7.6300010E-02
  0.4500000     -8.0800012E-02
  0.5000000     -8.4500000E-02
  0.5500000     -8.7000012E-02
  0.6000000     -8.8600010E-02
  0.6500000     -8.9300007E-02
  0.7000000     -8.9700013E-02
  0.7500000     -8.9800000E-02
  0.8000000     -8.9800000E-02
  0.8500000     -8.9800000E-02
  0.9000000     -8.9800000E-02
  0.9500000     -8.9800000E-02
   1.000000     -8.9800000E-02
